{
    "vyatta-security-firewall:name": [
        {
            "tagnode": "test2",
            "rule": [
                {
                    "tagnode": 1,
                    "action": "drop"
                }
            ]
        }
    ]
}
